area_number,area_name,area_type,area_location,quadrant,area_position,stages_no
1,,worldmap,woodbury,-,-,-
2,,worldmap,woodbury,-,-,-
3,,worldmap,woodbury,-,-,-
4,,worldmap,woodbury,-,-,-
5,the_prison,worldmap,woodbury,-,-,-
6,,worldmap,woodbury,-,-,-
7,,worldmap,woodbury,-,-,-
8,,worldmap,woodbury,-,-,-
9,,worldmap,woodbury,-,-,-
10,,worldmap,woodbury,-,-,-
11,,worldmap,woodbury,-,-,-
12,,worldmap,woodbury,-,-,-
13,small_street_usa,worldmap,woodbury,2,700-550,8
14,,worldmap,woodbury,-,-,-
15,,worldmap,woodbury,-,-,-
16,,worldmap,washington,-,-,-
17,,worldmap,washington,-,-,-
18,,worldmap,washington,-,-,-
19,,worldmap,washington,-,-,-
20,,worldmap,washington,-,-,-
21,,worldmap,washington,-,-,-
22,,worldmap,washington,-,-,-
23,,worldmap,washington,-,-,-
